<?xml version="1.0" encoding="UTF-8" standalone="no"?>
<svg
   xmlns:dc="http://purl.org/dc/elements/1.1/"
   xmlns:cc="http://creativecommons.org/ns#"
   xmlns:rdf="http://www.w3.org/1999/02/22-rdf-syntax-ns#"
   xmlns:svg="http://www.w3.org/2000/svg"
   xmlns="http://www.w3.org/2000/svg"
   xmlns:sodipodi="http://sodipodi.sourceforge.net/DTD/sodipodi-0.dtd"
   xmlns:inkscape="http://www.inkscape.org/namespaces/inkscape"
   viewBox="2799 -911 256 256"
   version="1.1"
   id="svg13"
   sodipodi:docname="logo.svg"
   width="256"
   height="256"
   inkscape:version="0.92.2 2405546, 2018-03-11"
   inkscape:export-filename="/tmp/logo.png"
   inkscape:export-xdpi="96"
   inkscape:export-ydpi="96">
  <metadata
     id="metadata17">
    <rdf:RDF>
      <cc:Work
         rdf:about="">
        <dc:format>image/svg+xml</dc:format>
        <dc:type
           rdf:resource="http://purl.org/dc/dcmitype/StillImage" />
        <dc:title />
      </cc:Work>
    </rdf:RDF>
  </metadata>
  <sodipodi:namedview
     pagecolor="#ffffff"
     bordercolor="#666666"
     borderopacity="1"
     objecttolerance="10"
     gridtolerance="10"
     guidetolerance="10"
     inkscape:pageopacity="0"
     inkscape:pageshadow="2"
     inkscape:window-width="1600"
     inkscape:window-height="875"
     id="namedview15"
     showgrid="false"
     inkscape:zoom="1.3165655"
     inkscape:cx="-56.118711"
     inkscape:cy="106.29652"
     inkscape:window-x="0"
     inkscape:window-y="0"
     inkscape:window-maximized="0"
     inkscape:current-layer="g4766" />
  <defs
     id="defs4">
    <style
       id="style2">
      .cls-3 {
        fill: #211f20;
      }

      .cls-4 {
        fill: #737373;
      }

      .cls-5 {
        fill: #f1680d;
      }

      .cls-6 {
        fill: rgba(255, 255, 255, 0);
      }
    </style>
  </defs>
  <style
     id="style4606"
     type="text/css">
	.st0{fill:#FF0000;}
	.st1{fill:#FFFFFF;}
	.st2{fill:#282828;}
</style>
  <g
     inkscape:groupmode="layer"
     id="layer1"
     inkscape:label="YouTube"
     transform="translate(0,234)" />
  <g
     inkscape:groupmode="layer"
     id="layer2"
     inkscape:label="PeerTube"
     transform="translate(0,234)">
    <g
       id="g4766"
       transform="matrix(2.0901806,0,0,2.0901806,-2940.1368,864.16252)">
      <g
         id="g842"
         transform="matrix(0.75459711,0,0,0.75459711,688.85123,-220.8641)">
        <g
           id="g4612"
           transform="translate(2746.2997,-942.5)"
           style="fill:#eeeeee;fill-opacity:1;stroke:none;stroke-opacity:1">
          <path
             style="fill:#eeeeee;fill-opacity:1;stroke:none;stroke-opacity:1"
             d="M 118.9,13.3 C 116.90399,4.8352887 107.40079,0.96247234 99.427834,1.3939753 71.777208,-0.65684341 43.943606,-0.52168492 16.320987,1.8206955 10.015165,2.6673949 3.9260304,6.9393175 2.5550984,13.420346 0.23266337,21.75599 0.6221712,30.526628 0.05979805,39.088807 -0.1086699,50.594295 0.20084182,62.285457 3.0429842,73.481846 c 2.8261983,6.881257 10.5724508,10.320693 17.6869818,9.993143 27.270802,2.28755 54.724207,1.879185 82.002104,-0.03785 6.30309,-0.395051 13.1171,-3.290484 15.38285,-9.662241 2.99284,-7.379859 2.28464,-15.536995 3.10952,-23.311096 C 121.76786,38.045591 121.34574,25.516058 118.9,13.3 Z"
             id="path4608"
             inkscape:connector-curvature="0" />
        </g>
        <g
           id="Artboard_1"
           data-name="Artboard – 1"
           class="cls-1"
           transform="matrix(3.0957052,0,0,3.0957052,-5882.6445,1879.9433)"
           style="stroke:none;stroke-width:3.24141002;stroke-miterlimit:4;stroke-dasharray:none;stroke-opacity:1">
          <g
             id="Symbol_3_1"
             data-name="Symbol 3 – 1"
             transform="translate(2759,-975)"
             style="stroke:none;stroke-width:3.24141002;stroke-miterlimit:4;stroke-dasharray:none;stroke-opacity:1">
            <g
               id="Group_44"
               data-name="Group 44"
               transform="translate(0,2.333)"
               style="stroke:none;stroke-width:3.24141002;stroke-miterlimit:4;stroke-dasharray:none;stroke-opacity:1">
              <path
                 style="fill:#211f20;stroke:none;stroke-width:3.24141002;stroke-miterlimit:4;stroke-dasharray:none;stroke-opacity:1"
                 d="m 40,64 c 0,3.555667 0,7.111333 0,10.667 2.666667,-1.777667 5.333333,-3.555333 8,-5.333"
                 id="Path_4"
                 inkscape:connector-curvature="0" />
              <path
                 style="fill:#737373;stroke:none;stroke-width:3.24141002;stroke-miterlimit:4;stroke-dasharray:none;stroke-opacity:1"
                 d="m 40,74.667 c 0,3.555667 0,7.111333 0,10.667 2.666667,-1.777667 5.333333,-3.555333 8,-5.333"
                 id="Path_5"
                 inkscape:connector-curvature="0" />
              <path
                 style="fill:#f1680d;stroke:none;stroke-width:3.24141002;stroke-miterlimit:4;stroke-dasharray:none;stroke-opacity:1"
                 d="m 48,69.333 c 0,3.555667 0,7.111333 0,10.667 2.666667,-1.777667 5.333333,-3.555333 8,-5.333"
                 id="Path_6"
                 inkscape:connector-curvature="0" />
              <path
                 style="stroke:none;stroke-width:3.24141002;stroke-miterlimit:4;stroke-dasharray:none;stroke-opacity:1"
                 d="m 48,80 c 0,-3.555667 0,-7.111333 0,-10.667 -2.666667,1.778 -5.333333,3.556 -8,5.334 2.666667,1.777667 5.333333,3.555333 8,5.333 z"
                 id="Path_7"
                 inkscape:connector-curvature="0" />
            </g>
          </g>
        </g>
      </g>
    </g>
  </g>
</svg>
